<?xml version="1.0" standalone="no"?>
<!DOCTYPE svg PUBLIC "-//W3C//DTD SVG 20010904//EN"
 "http://www.w3.org/TR/2001/REC-SVG-20010904/DTD/svg10.dtd">
<svg version="1.0" xmlns="http://www.w3.org/2000/svg"
 width="270.000000pt" height="270.000000pt" viewBox="0 0 270.000000 270.000000"
 preserveAspectRatio="xMidYMid meet">
<metadata>
Created by potrace 1.11, written by Peter Selinger 2001-2013
</metadata>
<g transform="translate(0.000000,270.000000) scale(0.100000,-0.100000)"
fill="#000000" stroke="none">
<path d="M1752 2088 c-16 -29 -69 -125 -117 -213 -48 -88 -99 -180 -113 -205
-13 -25 -37 -67 -52 -95 -15 -27 -63 -115 -107 -195 -44 -80 -94 -170 -110
-200 -28 -51 -115 -210 -169 -308 -13 -23 -35 -61 -48 -85 -13 -23 -42 -78
-66 -122 -24 -44 -47 -86 -53 -92 -7 -10 121 -13 634 -13 l644 0 11 23 c14 29
69 128 110 199 59 102 102 92 -418 93 -453 0 -456 0 -446 20 25 47 294 537
333 605 23 41 59 107 80 145 35 65 169 309 236 432 16 29 29 54 29 57 0 4 -78
6 -174 6 l-175 0 -29 -52z"/>
<path d="M2306 2073 c-20 -38 -52 -97 -72 -133 -47 -85 -82 -150 -129 -235
-21 -38 -57 -104 -80 -145 -23 -41 -60 -109 -83 -150 -22 -41 -76 -140 -120
-220 -45 -80 -79 -146 -77 -148 3 -3 269 -5 330 -3 13 1 29 17 46 49 15 26 41
74 59 107 18 33 42 76 53 95 11 19 59 107 107 195 48 88 98 180 112 205 14 25
62 113 108 195 45 83 95 174 112 203 l29 52 -179 0 -180 0 -36 -67z"/>
<path d="M1525 2111 c-16 -9 -192 -107 -390 -216 -198 -109 -373 -206 -390
-215 -67 -37 -144 -79 -210 -115 -38 -21 -74 -41 -80 -45 -5 -4 -44 -26 -85
-48 -41 -22 -127 -69 -190 -104 -64 -34 -128 -69 -143 -77 -15 -8 -27 -17 -27
-20 0 -3 117 -44 260 -91 233 -76 260 -87 269 -110 16 -45 48 -141 107 -322
31 -98 60 -178 63 -178 3 0 43 69 89 153 94 174 131 242 250 457 47 85 96 175
110 200 13 25 48 88 77 140 29 52 67 122 85 155 18 33 56 103 85 155 29 52 67
122 85 155 17 33 43 79 57 102 27 47 24 51 -22 24z"/>
</g>
</svg>
